asic/build_final_proj_ALU/3-brg-rtl-4-state-vcssim/outputs/vcd/imul-alu-add.vcd
$date
	Thu Apr 13 14:52:01 2023
$end

$version
	Synopsys VCS version R-2020.12_Full64
$end

$timescale
	1ns
$end

$comment Csum: 1 5457afa6ed142a24 $end


$scope module ProcDpathAluWrapper_tb $end
$var reg 1 ! clk $end
$var reg 1 " reset $end
$var integer 32 # cycle_count $end
$var reg 70 $ istream_msg [69:0] $end
$var reg 1 % istream_rdy [0:0] $end
$var reg 1 & istream_val [0:0] $end
$var reg 35 ' ostream_msg [34:0] $end
$var reg 1 ( ostream_rdy [0:0] $end
$var reg 1 ) ostream_val [0:0] $end

$scope task t $end
$var reg 70 * inp_istream_msg [69:0] $end
$var reg 1 + ref_istream_rdy [0:0] $end
$var reg 1 , inp_istream_val [0:0] $end
$var reg 35 - ref_ostream_msg [34:0] $end
$var reg 1 . inp_ostream_rdy [0:0] $end
$var reg 1 / ref_ostream_val [0:0] $end
$var integer 32 0 lineno $end
$upscope $end


$scope module DUT $end
$var reg 1 1 clk [0:0] $end
$var reg 1 2 reset [0:0] $end
$var reg 70 3 istream_msg [69:0] $end
$var reg 1 4 istream_rdy [0:0] $end
$var reg 1 5 istream_val [0:0] $end
$var reg 35 6 ostream_msg [34:0] $end
$var reg 1 7 ostream_rdy [0:0] $end
$var reg 1 8 ostream_val [0:0] $end

$scope module v $end
$var reg 1 9 clk $end
$var reg 1 : reset $end
$var reg 1 ; istream_val $end
$var reg 1 < istream_rdy $end
$var reg 70 = istream_msg [69:0] $end
$var reg 1 > ostream_val $end
$var reg 1 ? ostream_rdy $end
$var reg 35 @ ostream_msg [34:0] $end
$var reg 1 A val_reg_out $end
$var reg 32 B in0_reg_out [31:0] $end
$var reg 32 C in1_reg_out [31:0] $end
$var reg 6 D fn_reg_out [5:0] $end
$var reg 32 E out [31:0] $end
$var reg 1 F ops_eq $end
$var reg 1 G ops_lt $end
$var reg 1 H ops_ltu $end
$var reg 35 I out_msg [34:0] $end

$scope module val_reg $end
$var reg 1 J clk $end
$var reg 1 K reset $end
$var reg 1 L q [0:0] $end
$var reg 1 M d [0:0] $end
$var reg 1 N en $end
$upscope $end


$scope module in0_reg $end
$var reg 1 O clk $end
$var reg 1 P reset $end
$var reg 32 Q q [31:0] $end
$var reg 32 R d [31:0] $end
$var reg 1 S en $end
$upscope $end


$scope module in1_reg $end
$var reg 1 T clk $end
$var reg 1 U reset $end
$var reg 32 V q [31:0] $end
$var reg 32 W d [31:0] $end
$var reg 1 X en $end
$upscope $end


$scope module fn_reg $end
$var reg 1 Y clk $end
$var reg 1 Z reset $end
$var reg 6 [ q [5:0] $end
$var reg 6 \ d [5:0] $end
$var reg 1 ] en $end
$upscope $end


$scope module alu $end
$var reg 32 ^ in0 [31:0] $end
$var reg 32 _ in1 [31:0] $end
$var reg 6 ` fn [5:0] $end
$var reg 32 a out [31:0] $end
$var reg 1 b ops_eq $end
$var reg 1 c ops_lt $end
$var reg 1 d ops_ltu $end

$scope module cond_eq_comp $end
$var reg 32 e in0 [31:0] $end
$var reg 32 f in1 [31:0] $end
$var reg 1 g out $end
$upscope $end

$upscope $end

$upscope $end

$upscope $end

$upscope $end

$enddefinitions $end

#0
$dumpvars
x4
x5
x8
xb
xc
xd
0!
xg
xM
xN
x]
1Z
x%
x&
xF
xG
xH
x(
x)
xL
1"
x,
x.
x+
x/
x<
x;
x>
1K
xA
bxxxxxxxxxxxxxxxxxxxxxxxxxxxxxxxxxxxxxxxxxxxxxxxxxxxxxxxxxxxxxxxxxxxxxx 3
bxxxxxxxxxxxxxxxxxxxxxxxxxxxxxxxxxxx 6
bxxxxxxxxxxxxxxxxxxxxxxxxxxxxxxxx a
bxxxxxxxxxxxxxxxxxxxxxxxxxxxxxxxx e
bxxxxxxxxxxxxxxxxxxxxxxxxxxxxxxxx f
b00000000000000000000000000000000 #
bxxxxxx `
bxxxxxx \
bxxxxxx [
bxxxxxx D
bxxxxxxxxxxxxxxxxxxxxxxxxxxxxxxxx ^
bxxxxxxxxxxxxxxxxxxxxxxxxxxxxxxxx B
bxxxxxxxxxxxxxxxxxxxxxxxxxxxxxxxx _
bxxxxxxxxxxxxxxxxxxxxxxxxxxxxxxxx C
bxxxxxxxxxxxxxxxxxxxxxxxxxxxxxxxxxxxxxxxxxxxxxxxxxxxxxxxxxxxxxxxxxxxxxx $
bxxxxxxxxxxxxxxxxxxxxxxxxxxxxxxxxxxx '
bxxxxxxxxxxxxxxxxxxxxxxxxxxxxxxxx E
bxxxxxxxxxxxxxxxxxxxxxxxxxxxxxxxxxxx I
bxxxxxxxxxxxxxxxxxxxxxxxxxxxxxxxxxxxxxxxxxxxxxxxxxxxxxxxxxxxxxxxxxxxxxx *
bxxxxxxxxxxxxxxxxxxxxxxxxxxxxxxxx 0
bxxxxxxxxxxxxxxxxxxxxxxxxxxxxxxxxxxx -
bxxxxxxxxxxxxxxxxxxxxxxxxxxxxxxxxxxxxxxxxxxxxxxxxxxxxxxxxxxxxxxxxxxxxxx =
bxxxxxxxxxxxxxxxxxxxxxxxxxxxxxxxxxxx @
bxxxxxxxxxxxxxxxxxxxxxxxxxxxxxxxx R
bxxxxxxxxxxxxxxxxxxxxxxxxxxxxxxxx Q
bxxxxxxxxxxxxxxxxxxxxxxxxxxxxxxxx W
bxxxxxxxxxxxxxxxxxxxxxxxxxxxxxxxx V
12
1:
1P
1U
x7
x?
xS
xX
01
09
0J
0Y
0O
0T
$end
#2
1!
11
19
1J
1Y
1O
1T
0L
0A
0>
08
0)
b00000000000000000000000000000000000 @
b00000000000000000000000000000000000 6
b00000000000000000000000000000000000 '
#4
0!
01
09
0J
0Y
0O
0T
#6
1!
11
19
1J
1Y
1O
1T
#7
b00000000000000000000000000000001 #
#8
0!
01
09
0J
0Y
0O
0T
#10
1!
11
19
1J
1Y
1O
1T
#11
b00000000000000000000000000000010 #
0"
02
0:
0P
0U
0Z
0K
b0000000000000000000000000000000000000000000000000000000000000000000000 *
1+
0,
b00000000000000000000000000000000000 -
1.
0/
b00000000000000000000000000000001 0
b0000000000000000000000000000000000000000000000000000000000000000000000 $
b0000000000000000000000000000000000000000000000000000000000000000000000 3
b0000000000000000000000000000000000000000000000000000000000000000000000 =
b000000 \
b00000000000000000000000000000000 R
b00000000000000000000000000000000 W
0&
05
0;
0M
1(
17
1?
1S
1X
1]
1N
1<
14
1%
#12
0!
01
09
0J
0Y
0O
0T
#14
1!
11
19
1J
1Y
1O
1T
b000000 [
b000000 D
b000000 `
b00000000000000000000000000000000 Q
b00000000000000000000000000000000 B
b00000000000000000000000000000000 ^
b00000000000000000000000000000000 e
b00000000000000000000000000000000 V
b00000000000000000000000000000000 C
b00000000000000000000000000000000 _
b00000000000000000000000000000000 f
1g
1b
1F
0c
0G
0d
0H
b00000000000000000000000000000000 a
b00000000000000000000000000000000 E
b10000000000000000000000000000000000 I
#15
b00000000000000000000000000000011 #
1,
b00000000000000000000000000000010 0
1&
15
1;
1M
#16
0!
01
09
0J
0Y
0O
0T
#18
1!
11
19
1J
1Y
1O
1T
1L
1A
1>
18
1)
b10000000000000000000000000000000000 @
b10000000000000000000000000000000000 6
b10000000000000000000000000000000000 '
#19
b00000000000000000000000000000100 #
b0000000000111111111010101001100110000000000000000000010010001100000100 *
b10000000000000000000000000000000000 -
1/
b00000000000000000000000000000011 0
b0000000000111111111010101001100110000000000000000000010010001100000100 $
b0000000000111111111010101001100110000000000000000000010010001100000100 3
b0000000000111111111010101001100110000000000000000000010010001100000100 =
b00001111111110101010011001100000 R
b00000000000000010010001100000100 W
#20
0!
01
09
0J
0Y
0O
0T
#22
1!
11
19
1J
1Y
1O
1T
b00001111111110101010011001100000 Q
b00001111111110101010011001100000 B
b00001111111110101010011001100000 ^
b00001111111110101010011001100000 e
0g
0b
0F
b00000000000000010010001100000100 V
b00000000000000010010001100000100 C
b00000000000000010010001100000100 _
b00000000000000010010001100000100 f
b00001111111110111100100101100100 a
b00001111111110111100100101100100 E
b00000001111111110111100100101100100 I
b00000001111111110111100100101100100 @
b00000001111111110111100100101100100 6
b00000001111111110111100100101100100 '
#23
b00000000000000000000000000000101 #
b0000000000000000010011001000000101000011010110011000100000000001000000 *
b00000001111111110111100100101100100 -
b00000000000000000000000000000100 0
b0000000000000000010011001000000101000011010110011000100000000001000000 $
b0000000000000000010011001000000101000011010110011000100000000001000000 3
b0000000000000000010011001000000101000011010110011000100000000001000000 =
b00000000000100110010000001010000 R
b11010110011000100000000001000000 W
#24
0!
01
09
0J
0Y
0O
0T
#26
1!
11
19
1J
1Y
1O
1T
b00000000000100110010000001010000 Q
b00000000000100110010000001010000 B
b00000000000100110010000001010000 ^
b00000000000100110010000001010000 e
b11010110011000100000000001000000 V
b11010110011000100000000001000000 C
b11010110011000100000000001000000 _
b11010110011000100000000001000000 f
1d
1H
b11010110011101010010000010010000 a
b11010110011101010010000010010000 E
b00111010110011101010010000010010000 I
b00111010110011101010010000010010000 @
b00111010110011101010010000010010000 6
b00111010110011101010010000010010000 '
#27
b00000000000000000000000000000110 #
b0000001111111111110000101001000100000000000000000000000100010001010000 *
b00111010110011101010010000010010000 -
b00000000000000000000000000000101 0
b0000001111111111110000101001000100000000000000000000000100010001010000 $
b0000001111111111110000101001000100000000000000000000000100010001010000 3
b0000001111111111110000101001000100000000000000000000000100010001010000 =
b11111111111100001010010001000000 R
b00000000000000000100010001010000 W
#28
0!
01
09
0J
0Y
0O
0T
#30
1!
11
19
1J
1Y
1O
1T
b11111111111100001010010001000000 Q
b11111111111100001010010001000000 B
b11111111111100001010010001000000 ^
b11111111111100001010010001000000 e
0d
0H
b00000000000000000100010001010000 V
b00000000000000000100010001010000 C
b00000000000000000100010001010000 _
b00000000000000000100010001010000 f
1c
1G
b11111111111100001110100010010000 a
b11111111111100001110100010010000 E
b01011111111111100001110100010010000 I
b01011111111111100001110100010010000 @
b01011111111111100001110100010010000 6
b01011111111111100001110100010010000 '
#31
b00000000000000000000000000000111 #
b0000001111111011101110111010101010001111110100011001010000000000000000 *
b01011111111111100001110100010010000 -
b00000000000000000000000000000110 0
b0000001111111011101110111010101010001111110100011001010000000000000000 $
b0000001111111011101110111010101010001111110100011001010000000000000000 3
b0000001111111011101110111010101010001111110100011001010000000000000000 =
b11111110111011101110101010100011 R
b11110100011001010000000000000000 W
#32
0!
01
09
0J
0Y
0O
0T
#34
1!
11
19
1J
1Y
1O
1T
b11111110111011101110101010100011 Q
b11111110111011101110101010100011 B
b11111110111011101110101010100011 ^
b11111110111011101110101010100011 e
b11110100011001010000000000000000 V
b11110100011001010000000000000000 C
b11110100011001010000000000000000 _
b11110100011001010000000000000000 f
0c
0G
b11110011010100111110101010100011 a
b11110011010100111110101010100011 E
b00011110011010100111110101010100011 I
b00011110011010100111110101010100011 @
b00011110011010100111110101010100011 6
b00011110011010100111110101010100011 '
#35
b00000000000000000000000000001000 #
0,
b00011110011010100111110101010100011 -
b00000000000000000000000000000111 0
0&
05
0;
0M
#36
0!
01
09
0J
0Y
0O
0T
#38
1!
11
19
1J
1Y
1O
1T
0L
0A
0>
08
0)
b00000000000000000000000000000000000 @
b00000000000000000000000000000000000 6
b00000000000000000000000000000000000 '
#39
b00000000000000000000000000001001 #
b00000000000000000000000000000000000 -
0/
b00000000000000000000000000001000 0
#40
0!
01
09
0J
0Y
0O
0T
#42
1!
11
19
1J
1Y
1O
1T
#43
b00000000000000000000000000001010 #
b00000000000000000000000000001001 0
#44
0!
01
09
0J
0Y
0O
0T
#46
1!
11
19
1J
1Y
1O
1T
#47
b00000000000000000000000000001011 #
b00000000000000000000000000001010 0
#48
0!
01
09
0J
0Y
0O
0T
#50
1!
11
19
1J
1Y
1O
1T
#51
b00000000000000000000000000001100 #
b00000000000000000000000000001011 0
#52
0!
01
09
0J
0Y
0O
0T
#54
1!
11
19
1J
1Y
1O
1T
#55
b00000000000000000000000000001101 #
b00000000000000000000000000001100 0
#56
0!
01
09
0J
0Y
0O
0T
#58
1!
11
19
1J
1Y
1O
1T
#59
b00000000000000000000000000001110 #
#60
0!
01
09
0J
0Y
0O
0T
#62
1!
11
19
1J
1Y
1O
1T
#63
b00000000000000000000000000001111 #
